{
    "ids": [
        0,
        1,
        2,
        3,
        4,
        5,
        6,
        7,
        8,
        9,
        10,
        11,
        12,
        13,
        14,
        15,
        16,
        17,
        18,
        19,
        20,
        21,
        22,
        23,
        24,
        25,
        26,
        27,
        28,
        29,
        30,
        31,
        34,
        35,
        36,
        37,
        38,
        39,
        42,
        102,
        104,
        105,
        106,
        109,
        111,
        112,
        113,
        114,
        118,
        124,
        130,
        131,
        138,
        140,
        142,
        144,
        145,
        152,
        154,
        155,
        158,
        160,
        162
    ],
    "name": "MID_inner_r500m_aastar",
    "label": "label",
    "configuration": "ska1mid.cfg",
    "md5_checksum": "d41d8cd98f00b204e9800998ecf8427e"
}