<mxfile host="app.diagrams.net" agent="Mozilla/5.0 (X11; Linux x86_64) AppleWebKit/537.36 (KHTML, like Gecko) Chrome/132.0.0.0 Safari/537.36" version="26.0.7">
  <diagram name="Page-1" id="TxZcFj0eFW_FfJzCcIB4">
    <mxGraphModel dx="1185" dy="1785" grid="1" gridSize="10" guides="1" tooltips="1" connect="1" arrows="1" fold="1" page="1" pageScale="1" pageWidth="827" pageHeight="1169" math="0" shadow="0">
      <root>
        <mxCell id="0" />
        <mxCell id="1" value="api layer" style="locked=1;" parent="0" />
        <mxCell id="KHVQWx2WaPaGcyUSf1Np-8" value="" style="group;fontStyle=1" parent="1" vertex="1" connectable="0">
          <mxGeometry x="200" y="-800" width="1450" height="800" as="geometry" />
        </mxCell>
        <mxCell id="KHVQWx2WaPaGcyUSf1Np-9" value="f" style="shape=folder;fontStyle=1;spacingTop=10;tabWidth=50;tabHeight=20;tabPosition=left;html=1;dashed=1;fontSize=12;" parent="KHVQWx2WaPaGcyUSf1Np-8" vertex="1">
          <mxGeometry x="13.809523809523807" y="10.949902539708075" width="1436.190476190476" height="789.0499770113639" as="geometry" />
        </mxCell>
        <mxCell id="KHVQWx2WaPaGcyUSf1Np-10" value="&lt;font style=&quot;font-size: 9px;&quot;&gt;low/api.py&lt;/font&gt;" style="text;html=1;strokeColor=none;fillColor=none;align=left;verticalAlign=middle;whiteSpace=wrap;rounded=0;fontSize=12;" parent="KHVQWx2WaPaGcyUSf1Np-8" vertex="1">
          <mxGeometry x="16.57142857142857" y="4.37996101588323" width="82.85714285714286" height="32.849707619124224" as="geometry" />
        </mxCell>
        <mxCell id="KHVQWx2WaPaGcyUSf1Np-11" value="" style="whiteSpace=wrap;html=1;movable=1;resizable=1;rotatable=1;deletable=1;editable=1;connectable=1;" parent="1" vertex="1">
          <mxGeometry x="220" y="-760" width="1420" height="750" as="geometry" />
        </mxCell>
        <mxCell id="KHVQWx2WaPaGcyUSf1Np-37" value="&lt;font style=&quot;font-size: 10px;&quot;&gt;&amp;lt;continuum/zoom&amp;gt;_calculate&lt;/font&gt;" style="text;html=1;strokeColor=none;fillColor=none;align=center;verticalAlign=middle;whiteSpace=wrap;rounded=0;" parent="1" vertex="1">
          <mxGeometry x="220" y="-760" width="170" height="34.12" as="geometry" />
        </mxCell>
        <mxCell id="9fghi5JEIAGdPZEYT_1P-85" value="" style="endArrow=classic;html=1;rounded=0;fontSize=10;verticalAlign=bottom;entryX=0;entryY=0.5;entryDx=0;entryDy=0;" parent="1" edge="1">
          <mxGeometry width="50" height="50" relative="1" as="geometry">
            <mxPoint x="70" y="-332" as="sourcePoint" />
            <mxPoint x="220" y="-332" as="targetPoint" />
          </mxGeometry>
        </mxCell>
        <mxCell id="9fghi5JEIAGdPZEYT_1P-86" value="HTTP GET Request&lt;br&gt;to /&amp;lt;continuum/zoom&amp;gt;/calculate" style="edgeLabel;html=1;align=center;verticalAlign=bottom;resizable=0;points=[];fontSize=10;" parent="9fghi5JEIAGdPZEYT_1P-85" vertex="1" connectable="0">
          <mxGeometry x="-0.3473" relative="1" as="geometry">
            <mxPoint x="9" y="-6" as="offset" />
          </mxGeometry>
        </mxCell>
        <mxCell id="9fghi5JEIAGdPZEYT_1P-193" value="&lt;font style=&quot;font-size: 11px;&quot;&gt;Key&lt;/font&gt;" style="swimlane;whiteSpace=wrap;html=1;fontSize=11;" parent="1" vertex="1">
          <mxGeometry x="1680" y="-758" width="260" height="250" as="geometry">
            <mxRectangle x="1310" y="640" width="70" height="30" as="alternateBounds" />
          </mxGeometry>
        </mxCell>
        <mxCell id="9fghi5JEIAGdPZEYT_1P-194" value="" style="rounded=0;whiteSpace=wrap;html=1;fontSize=11;verticalAlign=top;" parent="9fghi5JEIAGdPZEYT_1P-193" vertex="1">
          <mxGeometry x="40" y="48" width="80" height="42" as="geometry" />
        </mxCell>
        <mxCell id="9fghi5JEIAGdPZEYT_1P-195" value="Function" style="text;html=1;strokeColor=none;fillColor=none;align=center;verticalAlign=middle;whiteSpace=wrap;rounded=0;fontSize=11;" parent="9fghi5JEIAGdPZEYT_1P-193" vertex="1">
          <mxGeometry x="150" y="54" width="60" height="30" as="geometry" />
        </mxCell>
        <mxCell id="9fghi5JEIAGdPZEYT_1P-196" value="" style="endArrow=classic;html=1;rounded=0;fontSize=12;" parent="9fghi5JEIAGdPZEYT_1P-193" edge="1">
          <mxGeometry width="50" height="50" relative="1" as="geometry">
            <mxPoint x="40" y="128" as="sourcePoint" />
            <mxPoint x="120" y="128" as="targetPoint" />
          </mxGeometry>
        </mxCell>
        <mxCell id="9fghi5JEIAGdPZEYT_1P-197" value="Function input/output" style="text;html=1;strokeColor=none;fillColor=none;align=center;verticalAlign=middle;whiteSpace=wrap;rounded=0;fontSize=11;" parent="9fghi5JEIAGdPZEYT_1P-193" vertex="1">
          <mxGeometry x="150" y="113" width="60" height="30" as="geometry" />
        </mxCell>
        <mxCell id="9fghi5JEIAGdPZEYT_1P-198" value="" style="shape=folder;fontStyle=1;spacingTop=10;tabWidth=40;tabHeight=14;tabPosition=left;html=1;fontSize=12;dashed=1;" parent="9fghi5JEIAGdPZEYT_1P-193" vertex="1">
          <mxGeometry x="40" y="168" width="80" height="42" as="geometry" />
        </mxCell>
        <mxCell id="9fghi5JEIAGdPZEYT_1P-199" value="Python module" style="text;html=1;strokeColor=none;fillColor=none;align=center;verticalAlign=middle;whiteSpace=wrap;rounded=0;fontSize=11;" parent="9fghi5JEIAGdPZEYT_1P-193" vertex="1">
          <mxGeometry x="150" y="174" width="60" height="30" as="geometry" />
        </mxCell>
        <mxCell id="9fghi5JEIAGdPZEYT_1P-44" value="validation" style="locked=1;" parent="0" />
        <mxCell id="9fghi5JEIAGdPZEYT_1P-56" value="" style="group" parent="9fghi5JEIAGdPZEYT_1P-44" vertex="1" connectable="0">
          <mxGeometry x="365" y="-410.58000000000004" width="215" height="143" as="geometry" />
        </mxCell>
        <mxCell id="9fghi5JEIAGdPZEYT_1P-57" value="" style="shape=folder;fontStyle=1;spacingTop=10;tabWidth=80;tabHeight=19;tabPosition=left;html=1;dashed=1;fontSize=12;" parent="9fghi5JEIAGdPZEYT_1P-56" vertex="1">
          <mxGeometry x="4.572398190045249" width="210.42760180995475" height="143" as="geometry" />
        </mxCell>
        <mxCell id="9fghi5JEIAGdPZEYT_1P-58" value="&lt;font style=&quot;font-size: 9px;&quot;&gt;low/validation.py&lt;/font&gt;" style="text;html=1;strokeColor=none;fillColor=none;align=left;verticalAlign=middle;whiteSpace=wrap;rounded=0;fontSize=6;" parent="9fghi5JEIAGdPZEYT_1P-56" vertex="1">
          <mxGeometry x="4.572398190045249" y="-5" width="73.25565610859728" height="29.95" as="geometry" />
        </mxCell>
        <mxCell id="9fghi5JEIAGdPZEYT_1P-63" value="" style="whiteSpace=wrap;html=1;" parent="9fghi5JEIAGdPZEYT_1P-44" vertex="1">
          <mxGeometry x="376" y="-380.83000000000004" width="194" height="100.36" as="geometry" />
        </mxCell>
        <mxCell id="9fghi5JEIAGdPZEYT_1P-64" value="&lt;span style=&quot;text-align: center;&quot;&gt;validate_and_set_defaults&lt;/span&gt;&lt;div style=&quot;text-align: center;&quot;&gt;_for_&amp;lt;continuum/zoom&amp;gt;&lt;/div&gt;" style="text;html=1;strokeColor=none;fillColor=none;align=left;verticalAlign=middle;whiteSpace=wrap;rounded=0;fontSize=9;" parent="9fghi5JEIAGdPZEYT_1P-44" vertex="1">
          <mxGeometry x="384" y="-379.82416437031657" width="102.00000000000001" height="34.12327773749093" as="geometry" />
        </mxCell>
        <mxCell id="9fghi5JEIAGdPZEYT_1P-78" value="" style="endArrow=classic;html=1;rounded=0;fontSize=10;exitX=1;exitY=0.5;exitDx=0;exitDy=0;verticalAlign=bottom;" parent="9fghi5JEIAGdPZEYT_1P-44" source="9fghi5JEIAGdPZEYT_1P-63" edge="1">
          <mxGeometry width="50" height="50" relative="1" as="geometry">
            <mxPoint x="580" y="-419.0582741116752" as="sourcePoint" />
            <mxPoint x="710" y="-330" as="targetPoint" />
          </mxGeometry>
        </mxCell>
        <mxCell id="9fghi5JEIAGdPZEYT_1P-79" value="&amp;lt;Continnum/Zoom&amp;gt;&lt;div&gt;CalculatorAndWeightingInput&lt;/div&gt;" style="edgeLabel;html=1;align=center;verticalAlign=bottom;resizable=0;points=[];fontSize=10;" parent="9fghi5JEIAGdPZEYT_1P-78" vertex="1" connectable="0">
          <mxGeometry x="-0.3473" relative="1" as="geometry">
            <mxPoint x="25" y="-10" as="offset" />
          </mxGeometry>
        </mxCell>
        <mxCell id="9fghi5JEIAGdPZEYT_1P-122" value="" style="endArrow=classic;html=1;rounded=0;fontSize=10;entryX=0;entryY=0.5;entryDx=0;entryDy=0;verticalAlign=bottom;" parent="9fghi5JEIAGdPZEYT_1P-44" edge="1">
          <mxGeometry width="50" height="50" relative="1" as="geometry">
            <mxPoint x="210" y="-331" as="sourcePoint" />
            <mxPoint x="376" y="-331" as="targetPoint" />
          </mxGeometry>
        </mxCell>
        <mxCell id="9fghi5JEIAGdPZEYT_1P-123" value="kwargs from params" style="edgeLabel;html=1;align=center;verticalAlign=bottom;resizable=0;points=[];fontSize=10;" parent="9fghi5JEIAGdPZEYT_1P-122" vertex="1" connectable="0">
          <mxGeometry x="-0.3473" relative="1" as="geometry">
            <mxPoint x="20" y="-10" as="offset" />
          </mxGeometry>
        </mxCell>
        <mxCell id="9fghi5JEIAGdPZEYT_1P-87" value="service" style="locked=1;" parent="0" />
        <mxCell id="9fghi5JEIAGdPZEYT_1P-166" value="" style="rounded=0;whiteSpace=wrap;html=1;" parent="9fghi5JEIAGdPZEYT_1P-87" vertex="1">
          <mxGeometry x="713" y="-672.39" width="357" height="352.39" as="geometry" />
        </mxCell>
        <mxCell id="9fghi5JEIAGdPZEYT_1P-98" value="" style="group" parent="9fghi5JEIAGdPZEYT_1P-87" vertex="1" connectable="0">
          <mxGeometry x="693.91" y="-730.88" width="790" height="700.8800000000001" as="geometry" />
        </mxCell>
        <mxCell id="9fghi5JEIAGdPZEYT_1P-99" value="" style="shape=folder;fontStyle=1;spacingTop=10;tabWidth=97;tabHeight=16;tabPosition=left;html=1;dashed=1;fontSize=12;" parent="9fghi5JEIAGdPZEYT_1P-98" vertex="1">
          <mxGeometry x="11.84" y="35.31" width="778.16" height="665.57" as="geometry" />
        </mxCell>
        <mxCell id="9fghi5JEIAGdPZEYT_1P-100" value="&lt;font style=&quot;font-size: 9px;&quot;&gt;service.py&lt;/font&gt;" style="text;html=1;strokeColor=none;fillColor=none;align=left;verticalAlign=middle;whiteSpace=wrap;rounded=0;fontSize=8;" parent="9fghi5JEIAGdPZEYT_1P-98" vertex="1">
          <mxGeometry x="12.892899079400388" y="-11.9115649227608" width="118.31702127659571" height="109.53508738288419" as="geometry" />
        </mxCell>
        <mxCell id="9fghi5JEIAGdPZEYT_1P-167" value="" style="rounded=0;whiteSpace=wrap;html=1;" parent="9fghi5JEIAGdPZEYT_1P-98" vertex="1">
          <mxGeometry x="18.85" y="63.69" width="761.15" height="626.31" as="geometry" />
        </mxCell>
        <mxCell id="9fghi5JEIAGdPZEYT_1P-108" value="&lt;font style=&quot;font-size: 10px;&quot;&gt;get_&amp;lt;continuum/zoom&amp;gt;_weighting_response&lt;/font&gt;" style="text;html=1;strokeColor=none;fillColor=none;align=left;verticalAlign=middle;whiteSpace=wrap;rounded=0;fontSize=9;" parent="9fghi5JEIAGdPZEYT_1P-87" vertex="1">
          <mxGeometry x="717" y="-673.5080367416002" width="102.00000000000001" height="34.12327773749093" as="geometry" />
        </mxCell>
        <mxCell id="9fghi5JEIAGdPZEYT_1P-115" value="" style="endArrow=classic;html=1;rounded=0;fontSize=10;exitX=0;exitY=0.5;exitDx=0;exitDy=0;verticalAlign=bottom;" parent="9fghi5JEIAGdPZEYT_1P-87" edge="1">
          <mxGeometry width="50" height="50" relative="1" as="geometry">
            <mxPoint x="1490" y="-315.9982741116752" as="sourcePoint" />
            <mxPoint x="1610" y="-315.70722262509076" as="targetPoint" />
          </mxGeometry>
        </mxCell>
        <mxCell id="9fghi5JEIAGdPZEYT_1P-116" value="Serializable &lt;br&gt;Response Body" style="edgeLabel;html=1;align=center;verticalAlign=bottom;resizable=0;points=[];fontSize=10;" parent="9fghi5JEIAGdPZEYT_1P-115" vertex="1" connectable="0">
          <mxGeometry x="-0.3473" relative="1" as="geometry">
            <mxPoint x="20" y="-10" as="offset" />
          </mxGeometry>
        </mxCell>
        <mxCell id="9fghi5JEIAGdPZEYT_1P-124" value="WEIGHTING" style="locked=1;" parent="0" />
        <mxCell id="9fghi5JEIAGdPZEYT_1P-137" value="" style="group" parent="9fghi5JEIAGdPZEYT_1P-124" vertex="1" connectable="0">
          <mxGeometry x="801.41" y="-612.5799999999999" width="225" height="251.7" as="geometry" />
        </mxCell>
        <mxCell id="9fghi5JEIAGdPZEYT_1P-138" value="" style="shape=folder;fontStyle=1;spacingTop=10;tabWidth=94;tabHeight=14;tabPosition=left;html=1;dashed=1;fontSize=12;" parent="9fghi5JEIAGdPZEYT_1P-137" vertex="1">
          <mxGeometry x="4.787234042553192" y="17.995264623955418" width="220.21276595744672" height="233.70473537604457" as="geometry" />
        </mxCell>
        <mxCell id="9fghi5JEIAGdPZEYT_1P-139" value="&lt;font style=&quot;font-size: 9px;&quot;&gt;common/beam.py&lt;/font&gt;" style="text;html=1;strokeColor=none;fillColor=none;align=left;verticalAlign=middle;whiteSpace=wrap;rounded=0;fontSize=6;" parent="9fghi5JEIAGdPZEYT_1P-137" vertex="1">
          <mxGeometry x="4.79" y="-2.75" width="85.21" height="55.84" as="geometry" />
        </mxCell>
        <mxCell id="9fghi5JEIAGdPZEYT_1P-141" value="[See common.beam module details]" style="whiteSpace=wrap;html=1;aspect=fixed;fontSize=9;" parent="9fghi5JEIAGdPZEYT_1P-124" vertex="1">
          <mxGeometry x="815" y="-572.0170558375635" width="202.91277683679277" height="202.91277683679277" as="geometry" />
        </mxCell>
        <mxCell id="9fghi5JEIAGdPZEYT_1P-142" value="&lt;font style=&quot;font-size: 10px;&quot;&gt;calculate_weighting&lt;/font&gt;" style="text;html=1;strokeColor=none;fillColor=none;align=left;verticalAlign=middle;whiteSpace=wrap;rounded=0;fontSize=9;" parent="9fghi5JEIAGdPZEYT_1P-124" vertex="1">
          <mxGeometry x="818" y="-572.0127067923617" width="102.00000000000001" height="34.12327773749093" as="geometry" />
        </mxCell>
        <mxCell id="9fghi5JEIAGdPZEYT_1P-143" value="" style="endArrow=classic;html=1;rounded=0;fontSize=10;exitX=0.008;exitY=0.569;exitDx=0;exitDy=0;entryX=0;entryY=0.5;entryDx=0;entryDy=0;verticalAlign=bottom;exitPerimeter=0;" parent="9fghi5JEIAGdPZEYT_1P-124" edge="1">
          <mxGeometry width="50" height="50" relative="1" as="geometry">
            <mxPoint x="715.8191200000003" y="-467.8800899999999" as="sourcePoint" />
            <mxPoint x="815" y="-466.560667419167" as="targetPoint" />
          </mxGeometry>
        </mxCell>
        <mxCell id="9fghi5JEIAGdPZEYT_1P-144" value="WeightingInput or&amp;nbsp;&lt;div&gt;WeightingMultiInput&lt;/div&gt;" style="edgeLabel;html=1;align=center;verticalAlign=bottom;resizable=0;points=[];fontSize=10;" parent="9fghi5JEIAGdPZEYT_1P-143" vertex="1" connectable="0">
          <mxGeometry x="-0.3473" relative="1" as="geometry">
            <mxPoint x="15" y="-10" as="offset" />
          </mxGeometry>
        </mxCell>
        <mxCell id="9fghi5JEIAGdPZEYT_1P-145" value="" style="endArrow=classic;html=1;rounded=0;fontSize=10;exitX=0;exitY=0.5;exitDx=0;exitDy=0;verticalAlign=bottom;" parent="9fghi5JEIAGdPZEYT_1P-124" edge="1">
          <mxGeometry width="50" height="50" relative="1" as="geometry">
            <mxPoint x="1019" y="-469.9382741116752" as="sourcePoint" />
            <mxPoint x="1460" y="-470" as="targetPoint" />
          </mxGeometry>
        </mxCell>
        <mxCell id="9fghi5JEIAGdPZEYT_1P-146" value="WeightingResult" style="edgeLabel;html=1;align=center;verticalAlign=bottom;resizable=0;points=[];fontSize=10;" parent="9fghi5JEIAGdPZEYT_1P-145" vertex="1" connectable="0">
          <mxGeometry x="-0.3473" relative="1" as="geometry">
            <mxPoint x="20" y="-10" as="offset" />
          </mxGeometry>
        </mxCell>
        <mxCell id="9fghi5JEIAGdPZEYT_1P-149" value="CALCULATE" style="locked=1;" parent="0" />
        <mxCell id="9fghi5JEIAGdPZEYT_1P-157" value="" style="group" parent="9fghi5JEIAGdPZEYT_1P-149" vertex="1" connectable="0">
          <mxGeometry x="801.41" y="-321.5799999999999" width="225" height="251.7" as="geometry" />
        </mxCell>
        <mxCell id="9fghi5JEIAGdPZEYT_1P-158" value="" style="shape=folder;fontStyle=1;spacingTop=10;tabWidth=94;tabHeight=14;tabPosition=left;html=1;dashed=1;fontSize=12;" parent="9fghi5JEIAGdPZEYT_1P-157" vertex="1">
          <mxGeometry x="4.787234042553192" y="17.995264623955418" width="220.21276595744672" height="233.70473537604457" as="geometry" />
        </mxCell>
        <mxCell id="9fghi5JEIAGdPZEYT_1P-159" value="&lt;font size=&quot;1&quot;&gt;calculator.py&lt;/font&gt;&lt;div&gt;&lt;font size=&quot;1&quot;&gt;&lt;br&gt;&lt;/font&gt;&lt;/div&gt;" style="text;html=1;strokeColor=none;fillColor=none;align=left;verticalAlign=middle;whiteSpace=wrap;rounded=0;fontSize=6;" parent="9fghi5JEIAGdPZEYT_1P-157" vertex="1">
          <mxGeometry x="4.79" y="2.25" width="85.21" height="55.84" as="geometry" />
        </mxCell>
        <mxCell id="9fghi5JEIAGdPZEYT_1P-160" value="[See below]" style="whiteSpace=wrap;html=1;aspect=fixed;fontSize=9;" parent="9fghi5JEIAGdPZEYT_1P-149" vertex="1">
          <mxGeometry x="815" y="-281.0170558375635" width="202.91277683679277" height="202.91277683679277" as="geometry" />
        </mxCell>
        <mxCell id="9fghi5JEIAGdPZEYT_1P-161" value="&lt;span style=&quot;text-align: center;&quot;&gt;calculate_sensitivity&lt;/span&gt;" style="text;html=1;strokeColor=none;fillColor=none;align=left;verticalAlign=middle;whiteSpace=wrap;rounded=0;fontSize=9;" parent="9fghi5JEIAGdPZEYT_1P-149" vertex="1">
          <mxGeometry x="818" y="-281.01270679236166" width="102.00000000000001" height="34.12327773749093" as="geometry" />
        </mxCell>
        <mxCell id="9fghi5JEIAGdPZEYT_1P-162" value="" style="endArrow=classic;html=1;rounded=0;fontSize=10;exitX=0.008;exitY=0.569;exitDx=0;exitDy=0;entryX=0;entryY=0.5;entryDx=0;entryDy=0;verticalAlign=bottom;exitPerimeter=0;" parent="9fghi5JEIAGdPZEYT_1P-149" edge="1">
          <mxGeometry width="50" height="50" relative="1" as="geometry">
            <mxPoint x="715.8191200000003" y="-176.88008999999988" as="sourcePoint" />
            <mxPoint x="815" y="-175.56066741916698" as="targetPoint" />
          </mxGeometry>
        </mxCell>
        <mxCell id="9fghi5JEIAGdPZEYT_1P-163" value="CalculatorInput" style="edgeLabel;html=1;align=center;verticalAlign=bottom;resizable=0;points=[];fontSize=10;" parent="9fghi5JEIAGdPZEYT_1P-162" vertex="1" connectable="0">
          <mxGeometry x="-0.3473" relative="1" as="geometry">
            <mxPoint x="15" y="-10" as="offset" />
          </mxGeometry>
        </mxCell>
        <mxCell id="9fghi5JEIAGdPZEYT_1P-164" value="" style="endArrow=classic;html=1;rounded=0;fontSize=10;exitX=0;exitY=0.5;exitDx=0;exitDy=0;verticalAlign=bottom;" parent="9fghi5JEIAGdPZEYT_1P-149" edge="1">
          <mxGeometry width="50" height="50" relative="1" as="geometry">
            <mxPoint x="1019" y="-178.93827411167518" as="sourcePoint" />
            <mxPoint x="1460" y="-179" as="targetPoint" />
          </mxGeometry>
        </mxCell>
        <mxCell id="9fghi5JEIAGdPZEYT_1P-165" value="CalculatorResult" style="edgeLabel;html=1;align=center;verticalAlign=bottom;resizable=0;points=[];fontSize=10;" parent="9fghi5JEIAGdPZEYT_1P-164" vertex="1" connectable="0">
          <mxGeometry x="-0.3473" relative="1" as="geometry">
            <mxPoint x="20" y="27" as="offset" />
          </mxGeometry>
        </mxCell>
        <mxCell id="9fghi5JEIAGdPZEYT_1P-169" value="calculated results" style="locked=1;" parent="0" />
        <mxCell id="9fghi5JEIAGdPZEYT_1P-186" value="" style="endArrow=classic;html=1;rounded=0;dashed=1;" parent="9fghi5JEIAGdPZEYT_1P-169" edge="1">
          <mxGeometry relative="1" as="geometry">
            <mxPoint x="1050" y="-470" as="sourcePoint" />
            <mxPoint x="1089" y="-320" as="targetPoint" />
            <Array as="points">
              <mxPoint x="1050.2238805970148" y="-363" />
              <mxPoint x="1089" y="-363" />
              <mxPoint x="1089" y="-320" />
            </Array>
          </mxGeometry>
        </mxCell>
        <mxCell id="9fghi5JEIAGdPZEYT_1P-187" value="" style="endArrow=classic;html=1;rounded=0;dashed=1;" parent="9fghi5JEIAGdPZEYT_1P-169" edge="1">
          <mxGeometry relative="1" as="geometry">
            <mxPoint x="1052" y="-181" as="sourcePoint" />
            <mxPoint x="1090" y="-320" as="targetPoint" />
            <Array as="points">
              <mxPoint x="1052.3283582089553" y="-291" />
              <mxPoint x="1090" y="-291" />
            </Array>
          </mxGeometry>
        </mxCell>
        <mxCell id="9fghi5JEIAGdPZEYT_1P-188" value="&lt;span style=&quot;text-wrap-mode: wrap; background-color: rgb(251, 251, 251);&quot;&gt;&amp;lt;Continuum/Zoom&amp;gt;&lt;/span&gt;&lt;div&gt;&lt;span style=&quot;text-wrap-mode: wrap; background-color: rgb(251, 251, 251);&quot;&gt;Sensitivities&lt;/span&gt;&lt;/div&gt;&lt;div&gt;&lt;span style=&quot;background-color: light-dark(rgb(251, 251, 251), rgb(21, 21, 21)); text-wrap-mode: wrap; color: light-dark(rgb(0, 0, 0), rgb(255, 255, 255));&quot;&gt;Transformations&lt;/span&gt;&lt;/div&gt;&lt;div&gt;&lt;span style=&quot;text-wrap-mode: wrap; background-color: rgb(251, 251, 251);&quot;&gt;Input&lt;/span&gt;&lt;/div&gt;" style="edgeLabel;html=1;align=left;verticalAlign=bottom;resizable=0;points=[];fontSize=10;" parent="9fghi5JEIAGdPZEYT_1P-169" vertex="1" connectable="0">
          <mxGeometry x="1098.998127808647" y="-329.9956248363435" as="geometry">
            <mxPoint y="9" as="offset" />
          </mxGeometry>
        </mxCell>
        <mxCell id="9fghi5JEIAGdPZEYT_1P-189" value="&lt;div style=&quot;text-align: left;&quot;&gt;&lt;span style=&quot;font-size: 10px; background-color: transparent; color: light-dark(rgb(0, 0, 0), rgb(255, 255, 255));&quot;&gt;calculate_&lt;/span&gt;&lt;/div&gt;&lt;div&gt;&lt;font style=&quot;font-size: 10px;&quot;&gt;&amp;lt;continuum/zoom&amp;gt;&lt;/font&gt;&lt;/div&gt;&lt;div style=&quot;text-align: left;&quot;&gt;&lt;font style=&quot;font-size: 10px;&quot;&gt;_results&lt;/font&gt;&lt;/div&gt;" style="rounded=0;whiteSpace=wrap;html=1;" parent="9fghi5JEIAGdPZEYT_1P-169" vertex="1">
          <mxGeometry x="1203" y="-350" width="120" height="60" as="geometry" />
        </mxCell>
        <mxCell id="9fghi5JEIAGdPZEYT_1P-190" value="" style="endArrow=classic;html=1;rounded=0;fontSize=10;exitX=1.01;exitY=0.555;exitDx=0;exitDy=0;verticalAlign=bottom;exitPerimeter=0;" parent="9fghi5JEIAGdPZEYT_1P-169" source="9fghi5JEIAGdPZEYT_1P-189" edge="1">
          <mxGeometry width="50" height="50" relative="1" as="geometry">
            <mxPoint x="1365" y="-316.612994923858" as="sourcePoint" />
            <mxPoint x="1459" y="-316" as="targetPoint" />
          </mxGeometry>
        </mxCell>
        <mxCell id="9fghi5JEIAGdPZEYT_1P-191" value="&lt;span style=&quot;background-color: rgb(251, 251, 251);&quot;&gt;&amp;lt;Continuum/Zoom&amp;gt;&lt;/span&gt;&lt;div&gt;&lt;span style=&quot;background-color: rgb(251, 251, 251);&quot;&gt;Sensitivities&lt;/span&gt;&lt;/div&gt;&lt;div&gt;&lt;span style=&quot;background-color: rgb(251, 251, 251);&quot;&gt;CalculatedResults&lt;/span&gt;&lt;/div&gt;" style="edgeLabel;html=1;align=left;verticalAlign=bottom;resizable=0;points=[];fontSize=10;" parent="9fghi5JEIAGdPZEYT_1P-190" vertex="1" connectable="0">
          <mxGeometry x="-0.3473" relative="1" as="geometry">
            <mxPoint x="-34" y="-3" as="offset" />
          </mxGeometry>
        </mxCell>
        <mxCell id="9fghi5JEIAGdPZEYT_1P-192" value="" style="endArrow=classic;html=1;rounded=0;fontSize=10;verticalAlign=bottom;entryX=0;entryY=0.5;entryDx=0;entryDy=0;" parent="9fghi5JEIAGdPZEYT_1P-169" target="9fghi5JEIAGdPZEYT_1P-189" edge="1">
          <mxGeometry width="50" height="50" relative="1" as="geometry">
            <mxPoint x="1090" y="-320" as="sourcePoint" />
            <mxPoint x="1179" y="-320" as="targetPoint" />
          </mxGeometry>
        </mxCell>
        <mxCell id="9fghi5JEIAGdPZEYT_1P-202" value="calculate_sensitivity_module" style="locked=1;" parent="0" />
        <mxCell id="9fghi5JEIAGdPZEYT_1P-203" value="" style="shape=folder;fontStyle=1;spacingTop=10;tabWidth=40;tabHeight=14;tabPosition=left;html=1;dashed=1;fontSize=12;" parent="9fghi5JEIAGdPZEYT_1P-202" vertex="1">
          <mxGeometry x="860" y="94" width="640" height="553" as="geometry" />
        </mxCell>
        <mxCell id="9fghi5JEIAGdPZEYT_1P-204" value="" style="endArrow=classic;html=1;rounded=0;fontSize=10;exitX=0;exitY=0.5;exitDx=0;exitDy=0;verticalAlign=bottom;" parent="9fghi5JEIAGdPZEYT_1P-202" edge="1">
          <mxGeometry width="50" height="50" relative="1" as="geometry">
            <mxPoint x="1490.0049999999999" y="366.71081952368536" as="sourcePoint" />
            <mxPoint x="1640" y="366.71000000000004" as="targetPoint" />
          </mxGeometry>
        </mxCell>
        <mxCell id="9fghi5JEIAGdPZEYT_1P-205" value="CalculatorResult" style="edgeLabel;html=1;align=center;verticalAlign=bottom;resizable=0;points=[];fontSize=10;" parent="9fghi5JEIAGdPZEYT_1P-204" vertex="1" connectable="0">
          <mxGeometry x="-0.3473" relative="1" as="geometry">
            <mxPoint x="20" y="-10" as="offset" />
          </mxGeometry>
        </mxCell>
        <mxCell id="9fghi5JEIAGdPZEYT_1P-206" value="calculator.py" style="text;html=1;strokeColor=none;fillColor=none;align=center;verticalAlign=middle;whiteSpace=wrap;rounded=0;fontSize=8;" parent="9fghi5JEIAGdPZEYT_1P-202" vertex="1">
          <mxGeometry x="830.9979407197071" y="36.00479216146687" width="112.21605131414262" height="130.88636525962428" as="geometry" />
        </mxCell>
        <mxCell id="9fghi5JEIAGdPZEYT_1P-207" value="" style="endArrow=classic;html=1;rounded=0;fontSize=10;entryX=0;entryY=0.5;entryDx=0;entryDy=0;verticalAlign=bottom;" parent="9fghi5JEIAGdPZEYT_1P-202" edge="1">
          <mxGeometry width="50" height="50" relative="1" as="geometry">
            <mxPoint x="710" y="367" as="sourcePoint" />
            <mxPoint x="869.995" y="367.21675913433296" as="targetPoint" />
          </mxGeometry>
        </mxCell>
        <mxCell id="9fghi5JEIAGdPZEYT_1P-208" value="CalculatorInput" style="edgeLabel;html=1;align=center;verticalAlign=bottom;resizable=0;points=[];fontSize=10;" parent="9fghi5JEIAGdPZEYT_1P-207" vertex="1" connectable="0">
          <mxGeometry x="-0.3473" relative="1" as="geometry">
            <mxPoint x="20" y="-10" as="offset" />
          </mxGeometry>
        </mxCell>
        <mxCell id="9fghi5JEIAGdPZEYT_1P-209" value="" style="whiteSpace=wrap;html=1;fontSize=9;container=0;" parent="9fghi5JEIAGdPZEYT_1P-202" vertex="1">
          <mxGeometry x="870" y="117" width="620" height="520" as="geometry" />
        </mxCell>
        <mxCell id="9fghi5JEIAGdPZEYT_1P-210" style="edgeStyle=orthogonalEdgeStyle;rounded=0;orthogonalLoop=1;jettySize=auto;html=1;exitX=1;exitY=0.5;exitDx=0;exitDy=0;entryX=0;entryY=0.5;entryDx=0;entryDy=0;fontSize=8;" parent="9fghi5JEIAGdPZEYT_1P-202" source="9fghi5JEIAGdPZEYT_1P-211" target="9fghi5JEIAGdPZEYT_1P-223" edge="1">
          <mxGeometry relative="1" as="geometry" />
        </mxCell>
        <mxCell id="9fghi5JEIAGdPZEYT_1P-211" value="_get_skalow_object" style="rounded=0;whiteSpace=wrap;html=1;fontSize=8;" parent="9fghi5JEIAGdPZEYT_1P-202" vertex="1">
          <mxGeometry x="920" y="187" width="120" height="40" as="geometry" />
        </mxCell>
        <mxCell id="9fghi5JEIAGdPZEYT_1P-212" style="edgeStyle=orthogonalEdgeStyle;rounded=0;orthogonalLoop=1;jettySize=auto;html=1;entryX=0;entryY=0.5;entryDx=0;entryDy=0;fontSize=8;" parent="9fghi5JEIAGdPZEYT_1P-202" source="9fghi5JEIAGdPZEYT_1P-213" target="9fghi5JEIAGdPZEYT_1P-223" edge="1">
          <mxGeometry relative="1" as="geometry" />
        </mxCell>
        <mxCell id="9fghi5JEIAGdPZEYT_1P-213" value="_get_target" style="rounded=0;whiteSpace=wrap;html=1;fontSize=8;" parent="9fghi5JEIAGdPZEYT_1P-202" vertex="1">
          <mxGeometry x="920" y="387" width="120" height="40" as="geometry" />
        </mxCell>
        <mxCell id="9fghi5JEIAGdPZEYT_1P-214" style="edgeStyle=orthogonalEdgeStyle;rounded=0;orthogonalLoop=1;jettySize=auto;html=1;fontSize=8;" parent="9fghi5JEIAGdPZEYT_1P-202" source="9fghi5JEIAGdPZEYT_1P-215" target="9fghi5JEIAGdPZEYT_1P-223" edge="1">
          <mxGeometry relative="1" as="geometry" />
        </mxCell>
        <mxCell id="9fghi5JEIAGdPZEYT_1P-215" value="_find_observation_time_utc" style="rounded=0;whiteSpace=wrap;html=1;fontSize=8;" parent="9fghi5JEIAGdPZEYT_1P-202" vertex="1">
          <mxGeometry x="920" y="277" width="120" height="40" as="geometry" />
        </mxCell>
        <mxCell id="9fghi5JEIAGdPZEYT_1P-216" style="edgeStyle=orthogonalEdgeStyle;rounded=0;orthogonalLoop=1;jettySize=auto;html=1;entryX=0;entryY=0.5;entryDx=0;entryDy=0;fontSize=8;" parent="9fghi5JEIAGdPZEYT_1P-202" source="9fghi5JEIAGdPZEYT_1P-217" target="9fghi5JEIAGdPZEYT_1P-223" edge="1">
          <mxGeometry relative="1" as="geometry" />
        </mxCell>
        <mxCell id="9fghi5JEIAGdPZEYT_1P-217" value="_get_frequency_grids" style="rounded=0;whiteSpace=wrap;html=1;fontSize=8;" parent="9fghi5JEIAGdPZEYT_1P-202" vertex="1">
          <mxGeometry x="920" y="477" width="120" height="40" as="geometry" />
        </mxCell>
        <mxCell id="9fghi5JEIAGdPZEYT_1P-218" value="" style="endArrow=classic;html=1;rounded=0;fontSize=8;entryX=0;entryY=0.5;entryDx=0;entryDy=0;" parent="9fghi5JEIAGdPZEYT_1P-202" target="9fghi5JEIAGdPZEYT_1P-215" edge="1">
          <mxGeometry width="50" height="50" relative="1" as="geometry">
            <mxPoint x="870" y="367" as="sourcePoint" />
            <mxPoint x="920" y="317" as="targetPoint" />
          </mxGeometry>
        </mxCell>
        <mxCell id="9fghi5JEIAGdPZEYT_1P-219" value="" style="endArrow=classic;html=1;rounded=0;fontSize=8;entryX=0;entryY=0.5;entryDx=0;entryDy=0;" parent="9fghi5JEIAGdPZEYT_1P-202" target="9fghi5JEIAGdPZEYT_1P-213" edge="1">
          <mxGeometry width="50" height="50" relative="1" as="geometry">
            <mxPoint x="870" y="367" as="sourcePoint" />
            <mxPoint x="923.64" y="335.5" as="targetPoint" />
          </mxGeometry>
        </mxCell>
        <mxCell id="9fghi5JEIAGdPZEYT_1P-220" value="" style="endArrow=classic;html=1;rounded=0;fontSize=8;entryX=0;entryY=0.5;entryDx=0;entryDy=0;" parent="9fghi5JEIAGdPZEYT_1P-202" target="9fghi5JEIAGdPZEYT_1P-217" edge="1">
          <mxGeometry width="50" height="50" relative="1" as="geometry">
            <mxPoint x="870" y="367" as="sourcePoint" />
            <mxPoint x="940" y="317" as="targetPoint" />
          </mxGeometry>
        </mxCell>
        <mxCell id="9fghi5JEIAGdPZEYT_1P-221" style="edgeStyle=orthogonalEdgeStyle;rounded=0;orthogonalLoop=1;jettySize=auto;html=1;fontSize=8;verticalAlign=bottom;" parent="9fghi5JEIAGdPZEYT_1P-202" source="9fghi5JEIAGdPZEYT_1P-223" target="9fghi5JEIAGdPZEYT_1P-226" edge="1">
          <mxGeometry relative="1" as="geometry" />
        </mxCell>
        <mxCell id="9fghi5JEIAGdPZEYT_1P-222" value="sensitivity &lt;br&gt;intervals" style="edgeLabel;html=1;align=center;verticalAlign=middle;resizable=0;points=[];fontSize=8;" parent="9fghi5JEIAGdPZEYT_1P-221" vertex="1" connectable="0">
          <mxGeometry x="0.0333" y="-1" relative="1" as="geometry">
            <mxPoint y="-16" as="offset" />
          </mxGeometry>
        </mxCell>
        <mxCell id="9fghi5JEIAGdPZEYT_1P-223" value="&lt;br&gt;" style="rounded=0;whiteSpace=wrap;html=1;fontSize=8;" parent="9fghi5JEIAGdPZEYT_1P-202" vertex="1">
          <mxGeometry x="1130" y="247" width="120" height="240" as="geometry" />
        </mxCell>
        <mxCell id="9fghi5JEIAGdPZEYT_1P-224" value="" style="endArrow=classic;html=1;rounded=0;fontSize=8;entryX=0;entryY=0.5;entryDx=0;entryDy=0;" parent="9fghi5JEIAGdPZEYT_1P-202" target="9fghi5JEIAGdPZEYT_1P-223" edge="1">
          <mxGeometry width="50" height="50" relative="1" as="geometry">
            <mxPoint x="870" y="367" as="sourcePoint" />
            <mxPoint x="930" y="307" as="targetPoint" />
          </mxGeometry>
        </mxCell>
        <mxCell id="9fghi5JEIAGdPZEYT_1P-225" value="final &lt;br&gt;sensitivity" style="edgeStyle=orthogonalEdgeStyle;rounded=0;orthogonalLoop=1;jettySize=auto;html=1;fontSize=8;verticalAlign=bottom;" parent="9fghi5JEIAGdPZEYT_1P-202" edge="1">
          <mxGeometry relative="1" as="geometry">
            <mxPoint x="1490" y="367" as="targetPoint" />
            <mxPoint x="1430" y="367" as="sourcePoint" />
          </mxGeometry>
        </mxCell>
        <mxCell id="9fghi5JEIAGdPZEYT_1P-226" value="_stack_sensitivities" style="rounded=0;whiteSpace=wrap;html=1;fontSize=8;" parent="9fghi5JEIAGdPZEYT_1P-202" vertex="1">
          <mxGeometry x="1310" y="347" width="120" height="40" as="geometry" />
        </mxCell>
        <mxCell id="9fghi5JEIAGdPZEYT_1P-227" value="calculate_sensitivity_for_timeslot" style="text;html=1;strokeColor=none;fillColor=none;align=center;verticalAlign=middle;whiteSpace=wrap;rounded=0;fontSize=8;" parent="9fghi5JEIAGdPZEYT_1P-202" vertex="1">
          <mxGeometry x="1160" y="247" width="60" height="30" as="geometry" />
        </mxCell>
        <mxCell id="9fghi5JEIAGdPZEYT_1P-228" value="sefd_table.&lt;br&gt;lookup_stokes_i_sefd" style="rounded=0;whiteSpace=wrap;html=1;fontSize=7;" parent="9fghi5JEIAGdPZEYT_1P-202" vertex="1">
          <mxGeometry x="1155" y="347" width="70" height="40" as="geometry" />
        </mxCell>
        <mxCell id="9fghi5JEIAGdPZEYT_1P-229" value="calculate_sensitivity" style="text;html=1;strokeColor=none;fillColor=none;align=center;verticalAlign=middle;whiteSpace=wrap;rounded=0;fontSize=9;" parent="9fghi5JEIAGdPZEYT_1P-202" vertex="1">
          <mxGeometry x="870" y="116.99729320763845" width="102.00000000000001" height="34.12327773749093" as="geometry" />
        </mxCell>
        <mxCell id="9fghi5JEIAGdPZEYT_1P-230" value="Observer" style="text;html=1;strokeColor=none;fillColor=none;align=center;verticalAlign=middle;whiteSpace=wrap;rounded=0;fontSize=8;" parent="9fghi5JEIAGdPZEYT_1P-202" vertex="1">
          <mxGeometry x="1032" y="185" width="60" height="30" as="geometry" />
        </mxCell>
        <mxCell id="9fghi5JEIAGdPZEYT_1P-231" value="(start, end, n_scans)" style="text;html=1;strokeColor=none;fillColor=none;align=center;verticalAlign=middle;whiteSpace=wrap;rounded=0;fontSize=8;" parent="9fghi5JEIAGdPZEYT_1P-202" vertex="1">
          <mxGeometry x="1033" y="269" width="60" height="30" as="geometry" />
        </mxCell>
        <mxCell id="9fghi5JEIAGdPZEYT_1P-232" value="(freq_array, bandwidth_array)" style="text;html=1;strokeColor=none;fillColor=none;align=center;verticalAlign=middle;whiteSpace=wrap;rounded=0;fontSize=8;" parent="9fghi5JEIAGdPZEYT_1P-202" vertex="1">
          <mxGeometry x="1014" y="490" width="178" height="30" as="geometry" />
        </mxCell>
        <mxCell id="9fghi5JEIAGdPZEYT_1P-233" value="FixedBody" style="text;html=1;strokeColor=none;fillColor=none;align=center;verticalAlign=middle;whiteSpace=wrap;rounded=0;fontSize=8;" parent="9fghi5JEIAGdPZEYT_1P-202" vertex="1">
          <mxGeometry x="1033" y="382" width="60" height="30" as="geometry" />
        </mxCell>
        <mxCell id="9fghi5JEIAGdPZEYT_1P-234" value="Loops in 30min intervals from start to end time, using all the inputs to look up the SEFD from the table and calculate the sensitivity for that interval&amp;nbsp;" style="shape=note;whiteSpace=wrap;html=1;backgroundOutline=1;darkOpacity=0.05;fontSize=8;" parent="9fghi5JEIAGdPZEYT_1P-202" vertex="1">
          <mxGeometry x="1540" y="85" width="120" height="130" as="geometry" />
        </mxCell>
        <mxCell id="9fghi5JEIAGdPZEYT_1P-235" value="" style="endArrow=classic;html=1;rounded=0;fontSize=8;dashed=1;dashPattern=1 1;" parent="9fghi5JEIAGdPZEYT_1P-202" target="9fghi5JEIAGdPZEYT_1P-223" edge="1">
          <mxGeometry width="50" height="50" relative="1" as="geometry">
            <mxPoint x="1540" y="159.05999999999995" as="sourcePoint" />
            <mxPoint x="1590" y="109.05999999999995" as="targetPoint" />
          </mxGeometry>
        </mxCell>
      </root>
    </mxGraphModel>
  </diagram>
</mxfile>
